…
``` r
source(here(verification/fn_station_selection.R))
sid_lists <- fn_station_selction("all_domains")
```

There are 34 SID lists currently available (names matching `*rmv*` can be ignored here):
``` r
> names(sid_lists)
 [1] "DKlist"             "DKland"             "DKcoast"            "DKupdated"          "Greenland"          "NorthSea"           "NNS"                "EstoniaSynop"       "LatviaSynop"     
[10] "LithuaniaSynop"     "mll_rmv_obstable"   "mll_rmv_vfldlist"   "DINI"               "IE_EN"              "IS"                 "NL"                 "NL_OP"              "DK"              
[19] "IRL"                "SCD"                "FR"                 "DE"                 "Alps"               "FranceSynop"        "GermanySynop"       "IrelandSynop"       "NorwaySynop"     
[28] "SwedenSynop"        "FinlandSynop"       "IcelandSynop"       "GreenlandSynop"     "DenmarkSynop"       "NetherlandsSynop"   "SpainSynop"         "SwitzerlandSynop"   "UnitedKingdomSynop"
[37] "stations_to_rmv"   
> sid_lists$DKlist
# A tibble: 38 × 1
     SID
   <dbl>
 1  6030
 2  6041
 3  6043
 4  6049
 5  6052
 6  6058
 7  6060
 8  6070
 9  6072
10  6073
# ℹ 28 more rows
# ℹ Use `print(n = ...)` to see more rows
> sid_lists$IRL
# A tibble: 113 × 5
     SID   lat   lon  elev elevmap    
   <int> <dbl> <dbl> <dbl> <chr>      
 1  3901  54.3 -7.59    72 2: 10-100m 
 2  3904  54.7 -7.58    49 2: 10-100m 
 3  3907  55.2 -6.95     6 1: <10m    
 4  3911  54.7 -6.82   225 3: 100-250m
 5  3915  54.9 -6.46    64 2: 10-100m 
 6  3916  55.2 -6.15   156 3: 100-250m
 7  3917  54.7 -6.23    63 2: 10-100m 
 8  3918  54.5 -6.33    18 2: 10-100m 
 9  3923  54.2 -6.50   161 3: 100-250m
10  3951  51.5 -9.42    21 2: 10-100m 
# ℹ 103 more rows
# ℹ Use `print(n = ...)` to see more rows
```
…
